Projekt
…
Jeeli klasyfikator miaby oprze si na trzech atrybutach opisywanych we wczeniejszych sekcjach  LDH, limfocyty i hs-CRP to zbir danych w obecnej postaci wygldaby tak:

##   outcome  LDH hs-CRP lymphocytes
## 1       0  243   10.9        30.5
## 2       1 1738  113.1         2.3
## 3       1  608  133.5         3.1
## 4       1  604  293.0         2.3
## 5       1 1126  320.0         3.7

Wynika to z tego, e pacjenci mogli mie badane rne cechy w cigu dnia o rnych godzinach, tzn. LDH mogo by badane o 9:00, a limfocyty o 14:00. W zbiorze zostao to zapisane w osobnych rekordach, wic te dwa wskaniki nie zostayby powizane i nie trafiyby na wejcie klasyfikatora.

Na potrzeby eksperymentu, badania kadego pacjenta zostay pogrupowane na poziomie dnia, a wartoci kolejnych atrybutw zostay urednione, co wpywa korzystnie na kompletno danych w kadym rekordzie. W takiej postaci znalezienie wszystkich trzech, kluczowych biomarkerw jest bardziej owocne, tzn. znaleziono 657 wynikw. Liczno bada przedstawicieli obu klas (przeycie i mier) jest stosunkowo zbliona  341 bada pacjentw, ktrzy przeyli i 316 bada pacjentw, ktrzy zmarli.

## # A tibble: 657 x 4
##    outcome   LDH `hs-CRP` lymphocytes
##      <dbl> <dbl>    <dbl>       <dbl>
##  1       0   306     43.1        22.6
##  2       0   250      3.6        25.9
##  3       0   198      2.6        28.7
##  4       0   738     27.4         7.5
##  5       0   328     42.3        19.1
##  6       0   269      3.6        33.1
##  7       0   338    108.         12.5
##  8       0   249     14.5        21.5
##  9       0   195      7          37.9
## 10       0   179      0.8        30.5
## # ... with 647 more rows
…
